檔案名稱     : E:\Census_Data\20160113_YOBHPA9O.txt
開始時間     : 2016/1/15 上午 06:29:25
檔案大小     : 10
行 1 偵測到結尾符號=>@@或::或空行
接收總行數     : 1
成功筆數     : 0
失敗筆數     : 0
結束時間     : 2016/1/15 上午 06:29:25
----------------------------------------------------
