檔案名稱     : E:\Census_Data\20160116_YOBHPA85.txt
開始時間     : 2016/1/20 上午 05:02:53
檔案大小     : 4732
行 14 偵測到結尾符號=>@@或::或空行
接收總行數     : 14
成功筆數     : 13
失敗筆數     : 0
結束時間     : 2016/1/20 上午 05:02:56
----------------------------------------------------
