檔案名稱     : E:\Census_Data\20151204_YOBHPA94.txt
開始時間     : 2015/12/6 上午 09:04:50
檔案大小     : 676
行 2 偵測到結尾符號=>@@或::或空行
接收總行數     : 2
成功筆數     : 1
失敗筆數     : 0
結束時間     : 2015/12/6 上午 09:04:58
----------------------------------------------------
