檔案名稱     : E:\Census_Data\20151229_YOBHPA04.txt
開始時間     : 2015/12/31 上午 03:56:47
檔案大小     : 312270
行 503 偵測到結尾符號=>@@或::或空行
接收總行數     : 503
成功筆數     : 502
失敗筆數     : 0
結束時間     : 2015/12/31 上午 03:56:47
----------------------------------------------------
