檔案名稱     : E:\Census_Data\20160224_YOBHPA96.txt
開始時間     : 2016/2/26 上午 06:17:34
檔案大小     : 4392
行 8 偵測到結尾符號=>@@或::或空行
接收總行數     : 8
成功筆數     : 7
失敗筆數     : 0
結束時間     : 2016/2/26 上午 06:17:35
----------------------------------------------------
