檔案名稱     : E:\Census_Data\20151119_YOBHPA95.txt
開始時間     : 2015/12/1 上午 11:23:45
檔案大小     : 1732
行 4 偵測到結尾符號=>@@或::或空行
接收總行數     : 4
成功筆數     : 3
失敗筆數     : 0
結束時間     : 2015/12/1 上午 11:23:45
----------------------------------------------------
