檔案名稱     : E:\Census_Data\20151112_YOBHPA12.txt
開始時間     : 2015/12/1 下午 10:10:22
檔案大小     : 5976
行 20 偵測到結尾符號=>@@或::或空行
接收總行數     : 20
成功筆數     : 19
失敗筆數     : 0
結束時間     : 2015/12/1 下午 10:10:22
----------------------------------------------------
