檔案名稱     : E:\Census_Data\20151119_YOBHPA12.txt
開始時間     : 2015/12/1 上午 09:34:43
檔案大小     : 5034
行 17 偵測到結尾符號=>@@或::或空行
接收總行數     : 17
成功筆數     : 16
失敗筆數     : 0
結束時間     : 2015/12/1 上午 09:34:43
----------------------------------------------------
