檔案名稱     : E:\Census_Data\20151118_YOBHPA9G.txt
開始時間     : 2015/12/1 上午 07:58:37
檔案大小     : 10
行 1 偵測到結尾符號=>@@或::或空行
接收總行數     : 1
成功筆數     : 0
失敗筆數     : 0
結束時間     : 2015/12/1 上午 07:58:37
----------------------------------------------------
