檔案名稱     : E:\Census_Data\20151224_YOBHPA9I.txt
開始時間     : 2015/12/26 上午 06:35:57
檔案大小     : 10
行 1 偵測到結尾符號=>@@或::或空行
接收總行數     : 1
成功筆數     : 0
失敗筆數     : 0
結束時間     : 2015/12/26 上午 06:35:57
----------------------------------------------------
