檔案名稱     : E:\Census_Data\20151126_YOBHPAA2.txt
開始時間     : 2015/12/4 上午 09:34:56
檔案大小     : 452
行 2 偵測到結尾符號=>@@或::或空行
接收總行數     : 2
成功筆數     : 1
失敗筆數     : 0
結束時間     : 2015/12/4 上午 09:34:57
----------------------------------------------------
