檔案名稱     : E:\Census_Data\20160104_YOBHPA75.txt
開始時間     : 2016/1/6 上午 10:28:45
檔案大小     : 19362
行 42 偵測到結尾符號=>@@或::或空行
接收總行數     : 42
成功筆數     : 41
失敗筆數     : 0
結束時間     : 2016/1/6 上午 10:28:59
----------------------------------------------------
