檔案名稱     : E:\Census_Data\20151118_YOBHPA12.txt
開始時間     : 2015/12/2 下午 03:09:26
檔案大小     : 7860
行 26 偵測到結尾符號=>@@或::或空行
接收總行數     : 26
成功筆數     : 25
失敗筆數     : 0
結束時間     : 2015/12/2 下午 03:09:26
----------------------------------------------------
