檔案名稱     : E:\Census_Data\20160123_YOBHPA73.txt
開始時間     : 2016/1/27 上午 03:53:46
檔案大小     : 1970788
行 4285 偵測到結尾符號=>@@或::或空行
接收總行數     : 4285
成功筆數     : 4284
失敗筆數     : 0
結束時間     : 2016/1/27 上午 04:13:24
----------------------------------------------------
