檔案名稱     : E:\Census_Data\20160205_YOBHPA85.txt
開始時間     : 2016/2/7 上午 05:56:29
檔案大小     : 4362
行 13 偵測到結尾符號=>@@或::或空行
接收總行數     : 13
成功筆數     : 12
失敗筆數     : 0
結束時間     : 2016/2/7 上午 05:56:30
----------------------------------------------------
