檔案名稱     : E:\Census_Data\20160119_YOBHPA9O.txt
開始時間     : 2016/1/21 上午 06:47:07
檔案大小     : 660
行 2 偵測到結尾符號=>@@或::或空行
接收總行數     : 2
成功筆數     : 1
失敗筆數     : 0
結束時間     : 2016/1/21 上午 06:47:07
----------------------------------------------------
