檔案名稱     : E:\Census_Data\20160210_YOBHPA73.txt
開始時間     : 2016/2/17 上午 11:33:39
檔案大小     : 10
行 1 偵測到結尾符號=>@@或::或空行
接收總行數     : 1
成功筆數     : 0
失敗筆數     : 0
結束時間     : 2016/2/17 上午 11:33:39
----------------------------------------------------
