檔案名稱     : E:\Census_Data\20151209_YOBHPE02.txt
開始時間     : 2015/12/11 上午 06:28:42
檔案大小     : 3640
行 12 偵測到結尾符號=>@@或::或空行
接收總行數     : 12
成功筆數     : 11
失敗筆數     : 0
結束時間     : 2015/12/11 上午 06:28:44
----------------------------------------------------
